Proyecto Firmografics
…
profit_pools_spain = unique(profit_pools_spain)
productivity_vs = construction %>%
  filter(GEO == "Spain") %>%
  filter(TIME == 2018) %>%
  filter(INDIC_SB == "Apparent labour productivity (Gross value added per person employed) - thousand euro") %>%
  group_by(NACE_R2)%>%
  arrange(desc(Value))

prioritization = inner_join(profit_pools_spain, productivity_vs, by= "NACE_R2", copy = FALSE)
prioritization = prioritization[, c(1,2,3,7)]
colnames(prioritization) <- c("Sectores", "Revenues", "Profit Margin", "Productivity")
prioritization

## # A tibble: 34 x 4
## # Groups:   Sectores [32]
##    Sectores                                Revenues `Profit Margin` Productivity
##    <chr>                                      <dbl>           <dbl>        <dbl>
##  1 Construction of buildings                 75845.             8.5         36.1
##  2 Specialised construction activities       49734.             9.8         33  
##  3 Construction of residential and non-re~   44420.             7.3         29.9
##  4 Construction of residential and non-re~   44420.             7.3         29.9
##  5 Development of building projects          31425.            10.2         68  
##  6 Development of building projects          31425.            10.2         68  
##  7 Electrical, plumbing and other constru~   29631.             8.8         35.1
##  8 Civil engineering                         19321.             5.2         52.2
##  9 Electrical installation                   17262.             8.2         35.7
## 10 Construction of roads and railways        12434.             1.8         50.8
## # ... with 24 more rows
…
